Core_tb.vcd
$version Generated by VerilatedVcd $end
$timescale 1ps $end
 $scope module Core_tb $end
  $var wire 1 b! clk $end
  $var wire 1 c! reset $end
  $var wire 1 d! mem_en $end
  $var wire 1 h! detected_tb $end
  $var wire 32 i! cycle_count [31:0] $end
  $scope module dut $end
   $var wire 1 b! clk $end
   $var wire 1 c! reset $end
   $var wire 1 d! mem_en $end
   $var wire 1 j! dummy_out $end
   $var wire 1 " if_redirect_valid $end
   $var wire 32 # if_redirect_dest [31:0] $end
   $var wire 32 k! if_branch_dest [31:0] $end
   $var wire 1 e! if_instr_valid $end
   $var wire 32 f! if_instr_data [31:0] $end
   $var wire 1 l! if_update_en $end
   $var wire 32 m! if_BTB_update_pc [31:0] $end
   $var wire 1 n! if_branch_taken $end
   $var wire 32 $ if_curr_pc [31:0] $end
   $var wire 32 % if_curr_pc4 [31:0] $end
   $var wire 1 & ifid_stall $end
   $var wire 1 " ifid_flush $end
   $var wire 1 " ex_pc_redirect_valid $end
   $var wire 1 ' id_instr_valid $end
   $var wire 32 ( id_instr_data [31:0] $end
   $var wire 32 ) id_instr_pc [31:0] $end
   $var wire 32 * id_instr_pc4 [31:0] $end
   $var wire 32 + wb_rd_data [31:0] $end
   $var wire 5 , wb_rd_addr [4:0] $end
   $var wire 1 - wb_reg_write $end
   $var wire 207 . idex_ctrl_signals [206:0] $end
   $var wire 1 " idex_flush $end
   $var wire 1 & idex_stall $end
   $var wire 207 5 ex_ctrl_signals [206:0] $end
   $var wire 2 < idex_fw_rs1_src [1:0] $end
   $var wire 2 = idex_fw_rs2_src [1:0] $end
   $var wire 2 > ex_fw_rs1_sel [1:0] $end
   $var wire 2 ? ex_fw_rs2_sel [1:0] $end
   $var wire 32 @ ex_fw_rs1_data [31:0] $end
   $var wire 32 @ ex_fw_rs2_data [31:0] $end
   $var wire 32 A mem_fw_rs1_data [31:0] $end
   $var wire 32 A mem_fw_rs2_data [31:0] $end
   $var wire 77 B exmem_ctrl_signals [76:0] $end
   $var wire 32 # ex_pc_redirect_dest [31:0] $end
   $var wire 32 E ex_fw_data_to_reg [31:0] $end
   $var wire 77 F mem_ctrl_signals [76:0] $end
   $var wire 32 @ ex_fw_data [31:0] $end
   $var wire 73 I memwb_ctrl_signals [72:0] $end
   $var wire 32 A mem_fw_data [31:0] $end
   $var wire 32 L mem_fw_data_to_reg [31:0] $end
   $var wire 73 M wb_ctrl_signals [72:0] $end
   $scope module Core_EX $end
    $var wire 207 5 idex_ctrl_signals [206:0] $end
    $var wire 32 @ ex_fw_rs1_data [31:0] $end
    $var wire 32 @ ex_fw_rs2_data [31:0] $end
    $var wire 32 A mem_fw_rs1_data [31:0] $end
    $var wire 32 A mem_fw_rs2_data [31:0] $end
    $var wire 2 > fw_rs1_sel_in [1:0] $end
    $var wire 2 ? fw_rs2_sel_in [1:0] $end
    $var wire 77 B exmem_ctrl_signals [76:0] $end
    $var wire 32 # pc_redirect_dest_out [31:0] $end
    $var wire 1 " pc_redirect_valid $end
    $var wire 32 E ex_fw_data [31:0] $end
    $var wire 32 P ex_rs1_data [31:0] $end
    $var wire 32 Q ex_rs2_data [31:0] $end
    $var wire 32 R ex_alu_operand_a [31:0] $end
    $var wire 32 S ex_alu_operand_b [31:0] $end
    $var wire 32 T ex_comp_operand_a [31:0] $end
    $var wire 32 U ex_comp_operand_b [31:0] $end
    $var wire 32 V ex_alu_result [31:0] $end
    $var wire 1 W ex_comp_result $end
    $var wire 32 E ex_int_result [31:0] $end
    $var wire 32 # ex_int_redir_dest [31:0] $end
    $var wire 1 " ex_int_redir_valid $end
    $var wire 32 X ex_store_data [31:0] $end
    $scope module ex_ALU $end
     $var wire 32 R alu_operand_a_in [31:0] $end
     $var wire 32 S alu_operand_b_in [31:0] $end
     $var wire 3 Y alu_op_in [2:0] $end
     $var wire 32 V ALU_result_out [31:0] $end
    $upscope $end
    $scope module ex_comp $end
     $var wire 32 T comp_operand_a_in [31:0] $end
     $var wire 32 U comp_operand_b_in [31:0] $end
     $var wire 3 Z comp_op_in [2:0] $end
     $var wire 1 W comp_result_out $end
    $upscope $end
    $scope module ex_fwd_mux $end
     $var wire 32 @ rs1_fw_ex_data [31:0] $end
     $var wire 32 @ rs2_fw_ex_data [31:0] $end
     $var wire 32 A rs1_fw_mem_data [31:0] $end
     $var wire 32 A rs2_fw_mem_data [31:0] $end
     $var wire 2 > fw_rs1_sel_in [1:0] $end
     $var wire 2 ? fw_rs2_sel_in [1:0] $end
     $var wire 32 [ rs1_data_in [31:0] $end
     $var wire 32 \ rs2_data_in [31:0] $end
     $var wire 32 P fw_mux_rs1_data_out [31:0] $end
     $var wire 32 Q fw_mux_rs2_data_out [31:0] $end
    $upscope $end
    $scope module ex_int_operand_parser $end
     $var wire 2 ] alu_a_src_in [1:0] $end
     $var wire 2 ^ alu_b_src_in [1:0] $end
     $var wire 2 _ comp_a_src_in [1:0] $end
     $var wire 2 ` comp_b_src_in [1:0] $end
     $var wire 32 P rs1_data_in [31:0] $end
     $var wire 32 Q rs2_data_in [31:0] $end
     $var wire 32 a imm_value_in [31:0] $end
     $var wire 32 b instr_pc_in [31:0] $end
     $var wire 32 R alu_operand_a_out [31:0] $end
     $var wire 32 S alu_operand_b_out [31:0] $end
     $var wire 32 T comp_operand_a_out [31:0] $end
     $var wire 32 U comp_operand_b_out [31:0] $end
    $upscope $end
    $scope module ex_int_result_parser $end
     $var wire 32 V alu_result_in [31:0] $end
     $var wire 1 W comp_result_in $end
     $var wire 32 Q rs2_data_in [31:0] $end
     $var wire 2 c lsu_op_in [1:0] $end
     $var wire 3 d branch_op_in [2:0] $end
     $var wire 3 e jump_op_in [2:0] $end
     $var wire 3 Z comp_op_in [2:0] $end
     $var wire 32 f instr_pc4_in [31:0] $end
     $var wire 32 E EX_Result_out [31:0] $end
     $var wire 32 # pc_redirect_dest_out [31:0] $end
     $var wire 1 " pc_redirect_valid_out $end
     $var wire 32 X store_data_out [31:0] $end
    $upscope $end
   $upscope $end
   $scope module Core_EX_MEM_Reg $end
    $var wire 1 b! clk $end
    $var wire 1 c! reset $end
    $var wire 32 E ex_fw_data_in [31:0] $end
    $var wire 77 B ex_ctrl_signals [76:0] $end
    $var wire 77 F mem_ctrl_signals [76:0] $end
    $var wire 32 @ ex_fw_data_out [31:0] $end
   $upscope $end
   $scope module Core_Fw_Control $end
    $var wire 5 g rs1_src_addr [4:0] $end
    $var wire 5 h rs2_src_addr [4:0] $end
    $var wire 5 i post_ex_rd_addr [4:0] $end
    $var wire 1 j post_ex_reg_write $end
    $var wire 5 k post_mem_rd_addr [4:0] $end
    $var wire 1 l post_mem_reg_write $end
    $var wire 1 m post_ex_is_load $end
    $var wire 2 < fw_rs1_src_sel [1:0] $end
    $var wire 2 = fw_rs2_src_sel [1:0] $end
   $upscope $end
   $scope module Core_ID $end
    $var wire 1 b! clk $end
    $var wire 1 c! reset $end
    $var wire 32 ( id_instr_data_in [31:0] $end
    $var wire 1 ' id_instr_valid_in $end
    $var wire 32 ) id_instr_pc_in [31:0] $end
    $var wire 32 * id_instr_pc4_in [31:0] $end
    $var wire 32 + wb_rd_data_in [31:0] $end
    $var wire 5 , wb_rd_addr_in [4:0] $end
    $var wire 1 - wb_reg_write_in $end
    $var wire 207 . id_ctrl_signals [206:0] $end
    $var wire 1 n id_alu_en $end
    $var wire 3 o id_alu_op [2:0] $end
    $var wire 2 p id_alu_a_src [1:0] $end
    $var wire 2 q id_alu_b_src [1:0] $end
    $var wire 1 r id_comp_en $end
    $var wire 3 s id_comp_op [2:0] $end
    $var wire 2 t id_comp_a_src [1:0] $end
    $var wire 2 u id_comp_b_src [1:0] $end
    $var wire 2 v id_wb_src [1:0] $end
    $var wire 3 w id_branch_op [2:0] $end
    $var wire 3 x id_jump_op [2:0] $end
    $var wire 5 g id_rs1_addr [4:0] $end
    $var wire 1 y id_use_rs1 $end
    $var wire 5 h id_rs2_addr [4:0] $end
    $var wire 1 z id_use_rs2 $end
    $var wire 5 { id_rd_addr [4:0] $end
    $var wire 1 | id_use_rd $end
    $var wire 1 } id_reg_write $end
    $var wire 32 ~ id_rs1_data [31:0] $end
    $var wire 32 !! id_rs2_data [31:0] $end
    $var wire 1 "! id_lsu_en $end
    $var wire 7 #! id_opcode [6:0] $end
    $var wire 2 $! id_lsu_op [1:0] $end
    $var wire 32 ) id_instr_pc [31:0] $end
    $var wire 32 o! id_instr_pc4 [31:0] $end
    $var wire 1 p! id_stall $end
    $var wire 1 %! id_is_load $end
    $var wire 3 &! id_imm_type [2:0] $end
    $var wire 32 '! id_imm [31:0] $end
    $scope module ID_Decoder $end
     $var wire 32 ( instr_data_in [31:0] $end
     $var wire 1 ' instr_valid_in $end
     $var wire 32 ) instr_pc_in [31:0] $end
     $var wire 32 * instr_pc4_in [31:0] $end
     $var wire 1 p! insert_NOP_bubble_in $end
     $var wire 1 n alu_en_out $end
     $var wire 3 o alu_op_out [2:0] $end
     $var wire 2 p alu_a_src_out [1:0] $end
     $var wire 2 q alu_b_src_out [1:0] $end
     $var wire 1 r comp_en_out $end
     $var wire 3 s comp_op_out [2:0] $end
     $var wire 2 t comp_a_src_out [1:0] $end
     $var wire 2 u comp_b_src_out [1:0] $end
     $var wire 3 w branch_op_out [2:0] $end
     $var wire 3 x jump_op_out [2:0] $end
     $var wire 5 g rs1_addr_out [4:0] $end
     $var wire 1 y use_rs1_out $end
     $var wire 5 h rs2_addr_out [4:0] $end
     $var wire 1 z use_rs2_out $end
     $var wire 5 { rd_addr_out [4:0] $end
     $var wire 1 | use_rd_out $end
     $var wire 1 } reg_write_out $end
     $var wire 1 "! lsu_en_out $end
     $var wire 7 #! opcode_out [6:0] $end
     $var wire 2 $! lsu_op_out [1:0] $end
     $var wire 2 v wb_src_sel_out [1:0] $end
     $var wire 32 ) instr_pc_out [31:0] $end
     $var wire 32 o! instr_pc4_out [31:0] $end
     $var wire 3 &! imm_type_out [2:0] $end
     $var wire 1 %! is_load $end
     $var wire 7 (! funct7 [6:0] $end
     $var wire 3 )! funct3 [2:0] $end
     $var wire 5 g rs1 [4:0] $end
     $var wire 5 h rs2 [4:0] $end
     $var wire 5 { rd [4:0] $end
     $var wire 1 } reg_write $end
    $upscope $end
    $scope module ID_Imm_Parser $end
     $var wire 32 ( instr_data_in [31:0] $end
     $var wire 3 &! imm_type_in [2:0] $end
     $var wire 32 '! Imm_out [31:0] $end
    $upscope $end
    $scope module ID_Register_File $end
     $var wire 32 q! ADDR_WIDTH [31:0] $end
     $var wire 32 r! DATA_WIDTH [31:0] $end
     $var wire 1 b! clk $end
     $var wire 1 c! reset $end
     $var wire 5 g rs1_addr_in [4:0] $end
     $var wire 32 ~ rs1_data_out [31:0] $end
     $var wire 5 h rs2_addr_in [4:0] $end
     $var wire 32 !! rs2_data_out [31:0] $end
     $var wire 5 , rd_addr_in [4:0] $end
     $var wire 32 + rd_data_in [31:0] $end
     $var wire 1 - write_en_in $end
     $var wire 32 r! NUM_WORDS [31:0] $end
     $var wire 32 *! Register_array[0] [31:0] $end
     $var wire 32 +! Register_array[1] [31:0] $end
     $var wire 32 ,! Register_array[2] [31:0] $end
     $var wire 32 -! Register_array[3] [31:0] $end
     $var wire 32 .! Register_array[4] [31:0] $end
     $var wire 32 /! Register_array[5] [31:0] $end
     $var wire 32 0! Register_array[6] [31:0] $end
     $var wire 32 1! Register_array[7] [31:0] $end
     $var wire 32 2! Register_array[8] [31:0] $end
     $var wire 32 3! Register_array[9] [31:0] $end
     $var wire 32 4! Register_array[10] [31:0] $end
     $var wire 32 5! Register_array[11] [31:0] $end
     $var wire 32 6! Register_array[12] [31:0] $end
     $var wire 32 7! Register_array[13] [31:0] $end
     $var wire 32 8! Register_array[14] [31:0] $end
     $var wire 32 9! Register_array[15] [31:0] $end
     $var wire 32 :! Register_array[16] [31:0] $end
     $var wire 32 ;! Register_array[17] [31:0] $end
     $var wire 32 <! Register_array[18] [31:0] $end
     $var wire 32 =! Register_array[19] [31:0] $end
     $var wire 32 >! Register_array[20] [31:0] $end
     $var wire 32 ?! Register_array[21] [31:0] $end
     $var wire 32 @! Register_array[22] [31:0] $end
     $var wire 32 A! Register_array[23] [31:0] $end
     $var wire 32 B! Register_array[24] [31:0] $end
     $var wire 32 C! Register_array[25] [31:0] $end
     $var wire 32 D! Register_array[26] [31:0] $end
     $var wire 32 E! Register_array[27] [31:0] $end
     $var wire 32 F! Register_array[28] [31:0] $end
     $var wire 32 G! Register_array[29] [31:0] $end
     $var wire 32 H! Register_array[30] [31:0] $end
     $var wire 32 I! Register_array[31] [31:0] $end
     $var wire 32 J! i [31:0] $end
    $upscope $end
   $upscope $end
   $scope module Core_ID_EX_Reg $end
    $var wire 1 b! clk $end
    $var wire 1 c! reset $end
    $var wire 1 & stall_in $end
    $var wire 1 " idex_flush_in $end
    $var wire 2 < fw_rs1_sel_in [1:0] $end
    $var wire 2 = fw_rs2_sel_in [1:0] $end
    $var wire 207 . id_ctrl_signals [206:0] $end
    $var wire 207 5 id_ex_ctrl_signals [206:0] $end
    $var wire 2 > fw_rs1_sel_out [1:0] $end
    $var wire 2 ? fw_rs2_sel_out [1:0] $end
   $upscope $end
   $scope module Core_IF $end
    $var wire 32 s! MEM_WIDTH [31:0] $end
    $var wire 1 b! clk $end
    $var wire 1 c! reset $end
    $var wire 1 d! mem_en $end
    $var wire 1 & if_stall_in $end
    $var wire 1 " if_redirect_valid $end
    $var wire 32 # if_redirect_dest [31:0] $end
    $var wire 32 k! if_branch_dest [31:0] $end
    $var wire 1 e! if_instr_valid $end
    $var wire 32 f! if_instr_data [31:0] $end
    $var wire 1 l! if_update_en $end
    $var wire 32 m! if_update_pc [31:0] $end
    $var wire 1 n! if_branch_taken $end
    $var wire 32 $ if_curr_pc [31:0] $end
    $var wire 32 % if_curr_pc4 [31:0] $end
    $var wire 32 $ if_int_current_pc_fetch [31:0] $end
    $var wire 32 % if_int_current_pc4_fetch [31:0] $end
    $var wire 1 K! if_int_predicted_taken $end
    $var wire 1 g! if_instr_req_valid $end
    $scope module IF_Branch_predictor $end
     $var wire 1 b! clk $end
     $var wire 1 c! reset $end
     $var wire 32 $ current_pc_in [31:0] $end
     $var wire 1 l! update_en_in $end
     $var wire 32 m! update_pc_in [31:0] $end
     $var wire 1 n! branch_taken_in $end
     $var wire 1 K! predicted_taken $end
     $var wire 3 t! update_index [2:0] $end
     $var wire 3 L! pc_index [2:0] $end
     $var wire 2 M! BHT[7] [1:0] $end
     $var wire 2 N! BHT[6] [1:0] $end
     $var wire 2 O! BHT[5] [1:0] $end
     $var wire 2 P! BHT[4] [1:0] $end
     $var wire 2 Q! BHT[3] [1:0] $end
     $var wire 2 R! BHT[2] [1:0] $end
     $var wire 2 S! BHT[1] [1:0] $end
     $var wire 2 T! BHT[0] [1:0] $end
     $var wire 32 U! i [31:0] $end
    $upscope $end
    $scope module IF_Instr_Mem $end
     $var wire 32 s! MEM_WIDTH [31:0] $end
     $var wire 1 d! mem_en $end
     $var wire 1 g! instr_req_valid $end
     $var wire 32 $ instr_req_addr_in [31:0] $end
     $var wire 1 e! instr_valid_out $end
     $var wire 32 f! instr_data_out [31:0] $end
    $upscope $end
    $scope module IF_PC_Fetch $end
     $var wire 1 b! clk $end
     $var wire 1 c! reset $end
     $var wire 1 & stall_in $end
     $var wire 1 " redirect_valid_in $end
     $var wire 32 # redirect_dest_in [31:0] $end
     $var wire 1 K! branch_predicted_in $end
     $var wire 32 k! branch_dest_in [31:0] $end
     $var wire 32 $ current_pc_out [31:0] $end
     $var wire 32 % current_pc4_out [31:0] $end
     $var wire 32 V! next_pc [31:0] $end
     $var wire 32 $ current_pc [31:0] $end
    $upscope $end
   $upscope $end
   $scope module Core_IF_ID_Reg $end
    $var wire 1 b! clk $end
    $var wire 1 c! reset $end
    $var wire 1 " ifid_flush_in $end
    $var wire 1 & stall_in $end
    $var wire 1 e! if_id_instr_valid_in $end
    $var wire 32 f! if_id_instr_data_in [31:0] $end
    $var wire 32 $ instr_pc_in [31:0] $end
    $var wire 32 % instr_pc4_in [31:0] $end
    $var wire 1 ' if_id_instr_valid_out $end
    $var wire 32 ( if_id_instr_data_out [31:0] $end
    $var wire 32 ) instr_pc_out [31:0] $end
    $var wire 32 * instr_pc4_out [31:0] $end
   $upscope $end
   $scope module Core_MEM $end
    $var wire 32 u! MEM_DEPTH [31:0] $end
    $var wire 32 v! DATA_ADDR [31:0] $end
    $var wire 1 b! clk $end
    $var wire 1 c! reset $end
    $var wire 77 F exmem_signals_in [76:0] $end
    $var wire 73 I mem_signals_out [72:0] $end
    $var wire 32 L mem_fw_data_out [31:0] $end
    $var wire 32 w! mem_int_addr [31:0] $end
    $var wire 1 W! mem_int_en $end
    $var wire 1 X! mem_int_rw $end
    $var wire 3 Y! mem_int_store_size [2:0] $end
    $var wire 3 Z! mem_int_load_size [2:0] $end
    $var wire 32 [! mem_int_memory_data [31:0] $end
    $var wire 1 \! mem_int_data_valid $end
    $scope module mem_int_control $end
     $var wire 2 ]! lsu_op_in [1:0] $end
     $var wire 1 W! mem_en_out $end
     $var wire 1 X! mem_rw_out $end
     $var wire 3 Y! mem_store_size_out [2:0] $end
     $var wire 3 Z! mem_load_size_out [2:0] $end
    $upscope $end
    $scope module mem_int_memory $end
     $var wire 32 u! MEM_DEPTH [31:0] $end
     $var wire 32 v! DATA_ADDR [31:0] $end
     $var wire 1 b! clk $end
     $var wire 1 c! reset $end
     $var wire 32 ^! addr_req_in [31:0] $end
     $var wire 32 _! store_data_in [31:0] $end
     $var wire 1 W! mem_en_in $end
     $var wire 1 X! mem_rw_in $end
     $var wire 3 Z! mem_load_size_in [2:0] $end
     $var wire 3 Y! mem_store_size_in [2:0] $end
     $var wire 32 [! mem_data_out [31:0] $end
     $var wire 1 \! mem_data_valid $end
     $var wire 32 `! i [31:0] $end
    $upscope $end
   $upscope $end
   $scope module Core_MEM_WB_Reg $end
    $var wire 1 b! clk $end
    $var wire 1 c! reset $end
    $var wire 73 I mem_wb_signals_in [72:0] $end
    $var wire 32 L mem_fw_data_in [31:0] $end
    $var wire 73 M wb_signals_out [72:0] $end
    $var wire 32 A mem_fw_data_out [31:0] $end
   $upscope $end
   $scope module Core_Stall_Control $end
    $var wire 5 i ex_rd_addr [4:0] $end
    $var wire 1 m ex_is_load $end
    $var wire 5 g id_rs1_addr [4:0] $end
    $var wire 5 h id_rs2_addr [4:0] $end
    $var wire 1 y id_use_rs1 $end
    $var wire 1 z id_use_rs2 $end
    $var wire 1 & ifid_stall_out $end
    $var wire 1 & idex_stall_out $end
    $var wire 1 a! addr_match $end
   $upscope $end
   $scope module Core_WB $end
    $var wire 73 M wb_ctrl_signals_in [72:0] $end
    $var wire 5 , rd_addr_out [4:0] $end
    $var wire 32 + rd_data_out [31:0] $end
    $var wire 1 - rd_write_out $end
   $upscope $end
  $upscope $end
 $upscope $end
 $scope module cpu_pkg $end
  $var wire 7 x! OPCODE_R [6:0] $end
  $var wire 7 y! OPCODE_I_ALU [6:0] $end
  $var wire 7 z! OPCODE_LOAD [6:0] $end
  $var wire 7 {! OPCODE_SW [6:0] $end
  $var wire 7 |! OPCODE_BRANCH [6:0] $end
  $var wire 7 }! OPCODE_JAL [6:0] $end
  $var wire 7 ~! OPCODE_JALR [6:0] $end
  $var wire 7 !" OPCODE_LUI [6:0] $end
 $upscope $end
$enddefinitions $end


#0
0"
b00000000000000000000000000000000 #
b00000000000000000000000000000000 $
b00000000000000000000000000000100 %
0&
0'
b00000000000000000000000000000000 (
b00000000000000000000000000000000 )
b00000000000000000000000000000000 *
b00000000000000000000000000000000 +
b00000 ,
0-
b011111100100011010000000000000000000000000000000000000000000000000000000000000000000000000000000000000000000100000000000000000000000000000000000000000000000000000000000000000000000000000000000000000000000000 .
b000000000000000000000000000000000000000000000000000000000000000000000000000000000000000000000000000000000000000000000000000000000000000000000000000000000000000000000000000000000000000000000000000000000000000 5
b10 <
b10 =
b00 >
b00 ?
b00000000000000000000000000000000 @
b00000000000000000000000000000000 A
b00000000000000000000000000000000000000000000000000000000000000000000000000000 B
b00000000000000000000000000000000 E
b00000000000000000000000000000000000000000000000000000000000000000000000000000 F
b0000000000000000000000000000000000000000000000000000000000000000000000001 I
b00000000000000000000000000000000 L
b0000000000000000000000000000000000000000000000000000000000000000000000000 M
b00000000000000000000000000000000 P
b00000000000000000000000000000000 Q
b00000000000000000000000000000000 R
b00000000000000000000000000000000 S
b00000000000000000000000000000000 T
b00000000000000000000000000000000 U
b00000000000000000000000000000000 V
1W
b00000000000000000000000000000000 X
b000 Y
b000 Z
b00000000000000000000000000000000 [
b00000000000000000000000000000000 \
b00 ]
b00 ^
b00 _
b00 `
b00000000000000000000000000000000 a
b00000000000000000000000000000000 b
b00 c
b000 d
b000 e
b00000000000000000000000000000000 f
b00000 g
b00000 h
b00000 i
0j
b00000 k
0l
0m
0n
b111 o
b11 p
b10 q
0r
b100 s
b01 t
b10 u
b10 v
b000 w
b000 x
0y
0z
b00000 {
0|
0}
b00000000000000000000000000000000 ~
b00000000000000000000000000000000 !!
0"!
b0000000 #!
b10 $!
0%!
b101 &!
b00000000000000000000000000000000 '!
b0000000 (!
b000 )!
b00000000000000000000000000000000 *!
b00000000000000000000000000000000 +!
b00000000000000000000000000000000 ,!
b00000000000000000000000000000000 -!
b00000000000000000000000000000000 .!
b00000000000000000000000000000000 /!
b00000000000000000000000000000000 0!
b00000000000000000000000000000000 1!
b00000000000000000000000000000000 2!
b00000000000000000000000000000000 3!
b00000000000000000000000000000000 4!
b00000000000000000000000000000000 5!
b00000000000000000000000000000000 6!
b00000000000000000000000000000000 7!
b00000000000000000000000000000000 8!
b00000000000000000000000000000000 9!
b00000000000000000000000000000000 :!
b00000000000000000000000000000000 ;!
b00000000000000000000000000000000 <!
b00000000000000000000000000000000 =!
b00000000000000000000000000000000 >!
b00000000000000000000000000000000 ?!
b00000000000000000000000000000000 @!
b00000000000000000000000000000000 A!
b00000000000000000000000000000000 B!
b00000000000000000000000000000000 C!
b00000000000000000000000000000000 D!
b00000000000000000000000000000000 E!
b00000000000000000000000000000000 F!
b00000000000000000000000000000000 G!
b00000000000000000000000000000000 H!
b00000000000000000000000000000000 I!
b00000000000000000000000000000000 J!
0K!
b000 L!
b00 M!
b00 N!
b00 O!
b00 P!
b00 Q!
b00 R!
b00 S!
b00 T!
b00000000000000000000000000000000 U!
b00000000000000000000000000000100 V!
1W!
0X!
b000 Y!
b100 Z!
b00000000000000000000000000000000 [!
1\!
b00 ]!
b00000000000000000000000000000000 ^!
b00000000000000000000000000000000 _!
b00000000000000000000000000000000 `!
0a!
0b!
1c!
1d!
0e!
b00000000000000000000000000000000 f!
0g!
0h!
b00000000000000000000000000000000 i!
0j!
b00000000000000000000000000000000 k!
0l!
b00000000000000000000000000000000 m!
0n!
b00000000000000000000000000000000 o!
0p!
b00000000000000000000000000000101 q!
b00000000000000000000000000100000 r!
b00000000000000000000010000000000 s!
b000 t!
b00000000000000000001000000000000 u!
b00000000000000000000000000000000 v!
b00000000000000000000000000000000 w!
b0110011 x!
b0010011 y!
b0000011 z!
b0100011 {!
b1100011 |!
b1101111 }!
b1100111 ~!
b0110111 !"
#5000
1-
b111111100100011010000000000000000000000000000000000000000000000000000000000000000000000000000000000000000000100000000000000000000000000000000000000000000000000000000000000000000000000000000000000000000000000 5
b10 >
b10 ?
b00000001001000000000000000000000000000000000000000000000000000000000000000000 B
b00000001001000000000000000000000000000000000000000000000000000000000000000000 F
b0000001000000000000000000000000000000000000000000000000000000000000000000 I
b0000011000000000000000000000000000000000000000000000000000000000000000000 M
0W
b111 Y
b100 Z
b11 ]
b10 ^
b01 _
b10 `
b10 c
b00000000000000000000000000100000 J!
b01 M!
b01 N!
b01 O!
b01 P!
b01 Q!
b01 R!
b01 S!
b01 T!
b00000000000000000000000000001000 U!
0W!
b000 Z!
0\!
b10 ]!
b00000000000000000001000000000000 `!
1b!
#10000
0b!
#15000
1b!
#20000
0b!
0c!
1e!
b00000001010000000000000100010011 f!
1g!
#25000
b00000000000000000000000000000100 $
b00000000000000000000000000001000 %
1'
b00000001010000000000000100010011 (
b00000000000000000000000000000100 *
0-
b100000010100011000000000000001101000000101100000000000000000000000000000000000000000000000000000000000000000100000000000000000000000000001010000000000000000000000000000000000000000000000000000000000000000000 .
b011111100100011010000000000000000000000000000000000000000000000000000000000000000000000000000000000000000000100000000000000000000000000000000000000000000000000000000000000000000000000000000000000000000000000 5
b0000001000000000000000000000000000000000000000000000000000000000000000000 M
b10100 h
1n
b000 o
b00 p
b01 q
b00 v
1y
b00010 {
1|
1}
b0010011 #!
b001 &!
b00000000000000000000000000010100 '!
b001 L!
b00000000000000000000000000001000 V!
1a!
1b!
b00000001001100000000000110010011 f!
#30000
0b!
#35000
b00000000000000000000000000001000 $
b00000000000000000000000000001100 %
b00000001001100000000000110010011 (
b00000000000000000000000000000100 )
b00000000000000000000000000001000 *
b100000010100011000000000000001100110000111100000000000000000000000000000010000000000000000000000000000000000100000000000000000000000000001001100000000000000000000000000000000000000000000000000000000000000000 .
b100000010100011000000000000001101000000101100000000000000000000000000000000000000000000000000000000000000000100000000000000000000000000001010000000000000000000000000000000000000000000000000000000000000000000 5
b00010110001000000000000000000000000000010100000000000000000000000000000000000 B
b00000000000000000000000000010100 E
b00000000000000000000000000010100 S
b00000000000000000000000000010100 V
b000 Y
b00 ]
b01 ^
b00000000000000000000000000010100 a
b10011 h
b00010 i
1j
b00011 {
b00000000000000000000000000010011 '!
b010 L!
b00000000000000000000000000001100 V!
0a!
1b!
b00000001000000000000000111101111 f!
#40000
0b!
#45000
b00000000000000000000000000001100 $
b00000000000000000000000000010000 %
b00000001000000000000000111101111 (
b00000000000000000000000000001000 )
b00000000000000000000000000001100 *
b100001010100011000000001000000100000000111100000000000000000000000000000100000000000000000000000000000000000100000000000000000000000000001000000000000000000000000000000000000000000000000000000000000000000000 .
b100000010100011000000000000001100110000111100000000000000000000000000000010000000000000000000000000000000000100000000000000000000000000001001100000000000000000000000000000000000000000000000000000000000000000 5
b00000000000000000000000000010100 @
b00011110001000000000000000000000000000010011000000000000000000000000000000000 B
b00000000000000000000000000010011 E
b00010110001000000000000000000000000000010100000000000000000000000000000000000 F
b0001010000000000000000000000000000010100000000000000000000000000000000000 I
b00000000000000000000000000010100 L
b00000000000000000000000000010011 S
b00000000000000000000000000010011 V
b00000000000000000000000000010011 a
b00000000000000000000000000000100 b
b10000 h
b00011 i
b00010 k
1l
b01 p
b001 x
0y
b1101111 #!
b100 &!
b00000000000000000000000000010000 '!
b011 L!
b00000000000000000000000000010000 V!
b00000000000000000000000000010100 ^!
1b!
b00000001010000000000001000010011 f!
#50000
0b!
#55000
1"
b00000000000000000000000000011000 #
b00000000000000000000000000010000 $
b00000000000000000000000000010100 %
b00000001010000000000001000010011 (
b00000000000000000000000000001100 )
b00000000000000000000000000010000 *
b00000000000000000000000000010100 +
b00010 ,
1-
b100000010100011000000000000001101000001001100000000000000000000000000000110000000000000000000000000000000000100000000000000000000000000001010000000000000000000000000000000000000000000000000000000000000000000 .
b100001010100011000000001000000100000000111100000000000000000000000000000100000000000000000000000000000000000100000000000000000000000000001000000000000000000000000000000000000000000000000000000000000000000000 5
b00000000000000000000000000010011 @
b00000000000000000000000000010100 A
b00011110001000000000000000000000000000000000000000000000000000000000000000000 B
b00000000000000000000000000000000 E
b00011110001000000000000000000000000000010011000000000000000000000000000000000 F
b0001110000000000000000000000000000010011000000000000000000000000000000000 I
b00000000000000000000000000010011 L
b0001010000000000000000000000000000010100000000000000000000000000000000000 M
b00000000000000000000000000001000 R
b00000000000000000000000000010000 S
b00000000000000000000000000011000 V
b01 ]
b00000000000000000000000000010000 a
b00000000000000000000000000001000 b
b001 e
b10100 h
b00011 k
b00 p
b000 x
1y
b00100 {
b0010011 #!
b001 &!
b00000000000000000000000000010100 '!
b100 L!
b00000000000000000000000000011000 V!
b00000000000000000000000000010011 ^!
1b!
b00000000000000000000000000000000 f!
#60000
0b!
#65000
0"
b00000000000000000000000000000000 #
b00000000000000000000000000011000 $
b00000000000000000000000000011100 %
0'
b00000000000000000000000000000000 (
b00000000000000000000000000000000 )
b00000000000000000000000000000000 *
b00000000000000000000000000010011 +
b00011 ,
b011111100100011010000000000001000000000000000000000000000000000000000000000000000000000000000000000000000000100000000000000000000000000000000000000000000000000000000000000000000000000000000000000000000000000 .
b111111100100011010000000000000000000000000000000000000000000000000000000000000000000000000000000000000000000100000000000000000000000000001000000000000000000000000000000000000000000000000000000000000000000000 5
b00000000000000000000000000000000 @
b00000000000000000000000000010011 A
b00000001001000000000000000000000000000000000000000000000000000000000000000000 B
b00011110001000000000000000000000000000000000000000000000000000000000000000000 F
b0001110000000000000000000000000000000000000000000000000000000000000000000 I
b00000000000000000000000000000000 L
b0001110000000000000000000000000000010011000000000000000000000000000000000 M
b00000000000000000000000000000000 R
b00000000000000000000000000000000 S
b00000000000000000000000000000000 V
b111 Y
b11 ]
b10 ^
b00000000000000000000000000000000 b
b000 e
b00000 h
b00000 i
0j
0n
b111 o
b11 p
b10 q
b10 v
b00000 {
0|
0}
b0000000 #!
b101 &!
b00000000000000000000000000000000 '!
b00000000000000000000000000010100 ,!
b110 L!
b00000000000000000000000000011100 V!
b00000000000000000000000000000000 ^!
1a!
1b!
b00000001000000011000001010010011 f!
#70000
0b!
