wave.vcd
$version Generated by VerilatedVcd $end
$timescale 1ps $end
 $scope module Core_tb $end
  $var wire 1 ^! clk $end
  $var wire 1 _! reset $end
  $var wire 1 `! mem_en $end
  $var wire 1 d! detected_tb $end
  $var wire 32 e! cycle_count [31:0] $end
  $scope module dut $end
   $var wire 1 ^! clk $end
   $var wire 1 _! reset $end
   $var wire 1 `! mem_en $end
   $var wire 1 f! dummy_out $end
   $var wire 1 " if_redirect_valid $end
   $var wire 32 # if_redirect_dest [31:0] $end
   $var wire 32 g! if_branch_dest [31:0] $end
   $var wire 1 a! if_instr_valid $end
   $var wire 32 b! if_instr_data [31:0] $end
   $var wire 1 h! if_update_en $end
   $var wire 32 i! if_BTB_update_pc [31:0] $end
   $var wire 1 j! if_branch_taken $end
   $var wire 32 $ if_curr_pc [31:0] $end
   $var wire 32 k! if_curr_pc4 [31:0] $end
   $var wire 1 " ifid_flush $end
   $var wire 1 % ifid_stall $end
   $var wire 1 & id_instr_valid $end
   $var wire 32 ' id_instr_data [31:0] $end
   $var wire 32 ( id_instr_pc [31:0] $end
   $var wire 32 ) id_instr_pc4 [31:0] $end
   $var wire 32 * wb_rd_data [31:0] $end
   $var wire 5 + wb_rd_addr [4:0] $end
   $var wire 1 , wb_reg_write $end
   $var wire 207 - idex_ctrl_signals [206:0] $end
   $var wire 1 " idex_flush $end
   $var wire 1 % idex_stall $end
   $var wire 207 4 ex_ctrl_signals [206:0] $end
   $var wire 32 ; ex_fw_rs1_data [31:0] $end
   $var wire 32 ; ex_fw_rs2_data [31:0] $end
   $var wire 32 l! mem_fw_rs1_data [31:0] $end
   $var wire 32 l! mem_fw_rs2_data [31:0] $end
   $var wire 2 < ex_fw_rs1_sel [1:0] $end
   $var wire 2 = ex_fw_rs2_sel [1:0] $end
   $var wire 77 > exmem_ctrl_signals [76:0] $end
   $var wire 32 # ex_pc_redirect_dest [31:0] $end
   $var wire 1 " ex_pc_redirect_valid $end
   $var wire 32 A ex_fw_data_to_reg [31:0] $end
   $var wire 77 B mem_ctrl_signals [76:0] $end
   $var wire 32 ; ex_fw_data [31:0] $end
   $var wire 73 E memwb_ctrl_signals [72:0] $end
   $var wire 32 l! mem_fw_data [31:0] $end
   $var wire 32 H mem_fw_data_to_reg [31:0] $end
   $var wire 73 I wb_ctrl_signals [72:0] $end
   $scope module Core_EX $end
    $var wire 207 4 idex_ctrl_signals [206:0] $end
    $var wire 32 ; ex_fw_rs1_data [31:0] $end
    $var wire 32 ; ex_fw_rs2_data [31:0] $end
    $var wire 32 l! mem_fw_rs1_data [31:0] $end
    $var wire 32 l! mem_fw_rs2_data [31:0] $end
    $var wire 2 < fw_rs1_sel_in [1:0] $end
    $var wire 2 = fw_rs2_sel_in [1:0] $end
    $var wire 77 > exmem_ctrl_signals [76:0] $end
    $var wire 32 # pc_redirect_dest_out [31:0] $end
    $var wire 1 " pc_redirect_valid $end
    $var wire 32 A ex_fw_data [31:0] $end
    $var wire 32 L ex_rs1_data [31:0] $end
    $var wire 32 M ex_rs2_data [31:0] $end
    $var wire 32 N ex_alu_operand_a [31:0] $end
    $var wire 32 O ex_alu_operand_b [31:0] $end
    $var wire 32 P ex_comp_operand_a [31:0] $end
    $var wire 32 Q ex_comp_operand_b [31:0] $end
    $var wire 32 R ex_alu_result [31:0] $end
    $var wire 1 S ex_comp_result $end
    $var wire 32 A ex_int_result [31:0] $end
    $var wire 32 # ex_int_redir_dest [31:0] $end
    $var wire 1 " ex_int_redir_valid $end
    $var wire 32 T ex_store_data [31:0] $end
    $scope module ex_ALU $end
     $var wire 32 N alu_operand_a_in [31:0] $end
     $var wire 32 O alu_operand_b_in [31:0] $end
     $var wire 3 U alu_op_in [2:0] $end
     $var wire 32 R ALU_result_out [31:0] $end
    $upscope $end
    $scope module ex_comp $end
     $var wire 32 P comp_operand_a_in [31:0] $end
     $var wire 32 Q comp_operand_b_in [31:0] $end
     $var wire 3 V comp_op_in [2:0] $end
     $var wire 1 S comp_result_out $end
    $upscope $end
    $scope module ex_fwd_mux $end
     $var wire 32 ; rs1_fw_ex_data [31:0] $end
     $var wire 32 ; rs2_fw_ex_data [31:0] $end
     $var wire 32 l! rs1_fw_mem_data [31:0] $end
     $var wire 32 l! rs2_fw_mem_data [31:0] $end
     $var wire 2 < fw_rs1_sel_in [1:0] $end
     $var wire 2 = fw_rs2_sel_in [1:0] $end
     $var wire 32 W rs1_data_in [31:0] $end
     $var wire 32 X rs2_data_in [31:0] $end
     $var wire 32 L fw_mux_rs1_data_out [31:0] $end
     $var wire 32 M fw_mux_rs2_data_out [31:0] $end
    $upscope $end
    $scope module ex_int_operand_parser $end
     $var wire 2 Y alu_a_src_in [1:0] $end
     $var wire 2 Z alu_b_src_in [1:0] $end
     $var wire 2 [ comp_a_src_in [1:0] $end
     $var wire 2 \ comp_b_src_in [1:0] $end
     $var wire 32 L rs1_data_in [31:0] $end
     $var wire 32 M rs2_data_in [31:0] $end
     $var wire 32 ] imm_value_in [31:0] $end
     $var wire 32 ^ instr_pc_in [31:0] $end
     $var wire 32 N alu_operand_a_out [31:0] $end
     $var wire 32 O alu_operand_b_out [31:0] $end
     $var wire 32 P comp_operand_a_out [31:0] $end
     $var wire 32 Q comp_operand_b_out [31:0] $end
    $upscope $end
    $scope module ex_int_result_parser $end
     $var wire 32 R alu_result_in [31:0] $end
     $var wire 1 S comp_result_in $end
     $var wire 32 X rs2_data_in [31:0] $end
     $var wire 2 _ lsu_op_in [1:0] $end
     $var wire 3 ` branch_op_in [2:0] $end
     $var wire 3 a jump_op_in [2:0] $end
     $var wire 3 V comp_op_in [2:0] $end
     $var wire 32 b instr_pc4_in [31:0] $end
     $var wire 32 A EX_Result_out [31:0] $end
     $var wire 32 # pc_redirect_dest_out [31:0] $end
     $var wire 1 " pc_redirect_valid_out $end
     $var wire 32 T store_data_out [31:0] $end
    $upscope $end
   $upscope $end
   $scope module Core_EX_MEM_Reg $end
    $var wire 1 ^! clk $end
    $var wire 1 _! reset $end
    $var wire 32 A ex_fw_data_in [31:0] $end
    $var wire 77 > ex_ctrl_signals [76:0] $end
    $var wire 77 B mem_ctrl_signals [76:0] $end
    $var wire 32 ; ex_fw_data_out [31:0] $end
   $upscope $end
   $scope module Core_Fw_Control $end
    $var wire 5 c id_rs1_src_addr [4:0] $end
    $var wire 5 d id_rs2_src_addr [4:0] $end
    $var wire 5 e ex_rd_addr [4:0] $end
    $var wire 1 f ex_reg_write $end
    $var wire 5 g mem_rd_addr [4:0] $end
    $var wire 1 h mem_reg_write $end
    $var wire 1 i ex_is_load $end
    $var wire 2 < fw_rs1_src_sel [1:0] $end
    $var wire 2 = fw_rs2_src_sel [1:0] $end
   $upscope $end
   $scope module Core_ID $end
    $var wire 1 ^! clk $end
    $var wire 1 _! reset $end
    $var wire 32 ' id_instr_data_in [31:0] $end
    $var wire 1 & id_instr_valid_in $end
    $var wire 32 ( id_instr_pc_in [31:0] $end
    $var wire 32 ) id_instr_pc4_in [31:0] $end
    $var wire 32 * wb_rd_data_in [31:0] $end
    $var wire 5 + wb_rd_addr_in [4:0] $end
    $var wire 1 , wb_reg_write_in $end
    $var wire 207 - id_ctrl_signals [206:0] $end
    $var wire 1 j id_alu_en $end
    $var wire 3 k id_alu_op [2:0] $end
    $var wire 2 l id_alu_a_src [1:0] $end
    $var wire 2 m id_alu_b_src [1:0] $end
    $var wire 1 n id_comp_en $end
    $var wire 3 o id_comp_op [2:0] $end
    $var wire 2 p id_comp_a_src [1:0] $end
    $var wire 2 q id_comp_b_src [1:0] $end
    $var wire 2 r id_wb_src [1:0] $end
    $var wire 3 s id_branch_op [2:0] $end
    $var wire 3 t id_jump_op [2:0] $end
    $var wire 5 c id_rs1_addr [4:0] $end
    $var wire 1 u id_use_rs1 $end
    $var wire 5 d id_rs2_addr [4:0] $end
    $var wire 1 v id_use_rs2 $end
    $var wire 5 w id_rd_addr [4:0] $end
    $var wire 1 x id_use_rd $end
    $var wire 1 y id_reg_write $end
    $var wire 32 z id_rs1_data [31:0] $end
    $var wire 32 { id_rs2_data [31:0] $end
    $var wire 1 | id_lsu_en $end
    $var wire 7 } id_opcode [6:0] $end
    $var wire 2 ~ id_lsu_op [1:0] $end
    $var wire 32 ( id_instr_pc [31:0] $end
    $var wire 32 m! id_instr_pc4 [31:0] $end
    $var wire 1 n! id_stall $end
    $var wire 1 !! id_is_load $end
    $var wire 3 "! id_imm_type [2:0] $end
    $var wire 32 #! id_imm [31:0] $end
    $scope module ID_Decoder $end
     $var wire 32 ' instr_data_in [31:0] $end
     $var wire 1 & instr_valid_in $end
     $var wire 32 ( instr_pc_in [31:0] $end
     $var wire 32 ) instr_pc4_in [31:0] $end
     $var wire 1 n! insert_NOP_bubble_in $end
     $var wire 1 j alu_en_out $end
     $var wire 3 k alu_op_out [2:0] $end
     $var wire 2 l alu_a_src_out [1:0] $end
     $var wire 2 m alu_b_src_out [1:0] $end
     $var wire 1 n comp_en_out $end
     $var wire 3 o comp_op_out [2:0] $end
     $var wire 2 p comp_a_src_out [1:0] $end
     $var wire 2 q comp_b_src_out [1:0] $end
     $var wire 3 s branch_op_out [2:0] $end
     $var wire 3 t jump_op_out [2:0] $end
     $var wire 5 c rs1_addr_out [4:0] $end
     $var wire 1 u use_rs1_out $end
     $var wire 5 d rs2_addr_out [4:0] $end
     $var wire 1 v use_rs2_out $end
     $var wire 5 w rd_addr_out [4:0] $end
     $var wire 1 x use_rd_out $end
     $var wire 1 y reg_write_out $end
     $var wire 1 | lsu_en_out $end
     $var wire 7 } opcode_out [6:0] $end
     $var wire 2 ~ lsu_op_out [1:0] $end
     $var wire 2 r wb_src_sel_out [1:0] $end
     $var wire 32 ( instr_pc_out [31:0] $end
     $var wire 32 m! instr_pc4_out [31:0] $end
     $var wire 3 "! imm_type_out [2:0] $end
     $var wire 1 !! is_load $end
     $var wire 7 $! funct7 [6:0] $end
     $var wire 3 %! funct3 [2:0] $end
     $var wire 5 c rs1 [4:0] $end
     $var wire 5 d rs2 [4:0] $end
     $var wire 5 w rd [4:0] $end
     $var wire 1 y reg_write $end
    $upscope $end
    $scope module ID_Imm_Parser $end
     $var wire 32 ' instr_data_in [31:0] $end
     $var wire 3 "! imm_type_in [2:0] $end
     $var wire 32 #! Imm_out [31:0] $end
    $upscope $end
    $scope module ID_Register_File $end
     $var wire 32 o! ADDR_WIDTH [31:0] $end
     $var wire 32 p! DATA_WIDTH [31:0] $end
     $var wire 1 ^! clk $end
     $var wire 1 _! reset $end
     $var wire 5 c rs1_addr_in [4:0] $end
     $var wire 32 z rs1_data_out [31:0] $end
     $var wire 5 d rs2_addr_in [4:0] $end
     $var wire 32 { rs2_data_out [31:0] $end
     $var wire 5 + rd_addr_in [4:0] $end
     $var wire 32 * rd_data_in [31:0] $end
     $var wire 1 , write_en_in $end
     $var wire 32 p! NUM_WORDS [31:0] $end
     $var wire 32 &! Register_array[0] [31:0] $end
     $var wire 32 '! Register_array[1] [31:0] $end
     $var wire 32 (! Register_array[2] [31:0] $end
     $var wire 32 )! Register_array[3] [31:0] $end
     $var wire 32 *! Register_array[4] [31:0] $end
     $var wire 32 +! Register_array[5] [31:0] $end
     $var wire 32 ,! Register_array[6] [31:0] $end
     $var wire 32 -! Register_array[7] [31:0] $end
     $var wire 32 .! Register_array[8] [31:0] $end
     $var wire 32 /! Register_array[9] [31:0] $end
     $var wire 32 0! Register_array[10] [31:0] $end
     $var wire 32 1! Register_array[11] [31:0] $end
     $var wire 32 2! Register_array[12] [31:0] $end
     $var wire 32 3! Register_array[13] [31:0] $end
     $var wire 32 4! Register_array[14] [31:0] $end
     $var wire 32 5! Register_array[15] [31:0] $end
     $var wire 32 6! Register_array[16] [31:0] $end
     $var wire 32 7! Register_array[17] [31:0] $end
     $var wire 32 8! Register_array[18] [31:0] $end
     $var wire 32 9! Register_array[19] [31:0] $end
     $var wire 32 :! Register_array[20] [31:0] $end
     $var wire 32 ;! Register_array[21] [31:0] $end
     $var wire 32 <! Register_array[22] [31:0] $end
     $var wire 32 =! Register_array[23] [31:0] $end
     $var wire 32 >! Register_array[24] [31:0] $end
     $var wire 32 ?! Register_array[25] [31:0] $end
     $var wire 32 @! Register_array[26] [31:0] $end
     $var wire 32 A! Register_array[27] [31:0] $end
     $var wire 32 B! Register_array[28] [31:0] $end
     $var wire 32 C! Register_array[29] [31:0] $end
     $var wire 32 D! Register_array[30] [31:0] $end
     $var wire 32 E! Register_array[31] [31:0] $end
     $var wire 32 F! i [31:0] $end
    $upscope $end
   $upscope $end
   $scope module Core_ID_EX_Reg $end
    $var wire 1 ^! clk $end
    $var wire 1 _! reset $end
    $var wire 1 % stall_in $end
    $var wire 1 " idex_flush_in $end
    $var wire 207 - id_ctrl_signals [206:0] $end
    $var wire 207 4 id_ex_ctrl_signals [206:0] $end
   $upscope $end
   $scope module Core_IF $end
    $var wire 32 q! MEM_WIDTH [31:0] $end
    $var wire 1 ^! clk $end
    $var wire 1 _! reset $end
    $var wire 1 `! mem_en $end
    $var wire 1 % if_stall_in $end
    $var wire 1 " if_redirect_valid $end
    $var wire 32 # if_redirect_dest [31:0] $end
    $var wire 32 g! if_branch_dest [31:0] $end
    $var wire 1 a! if_instr_valid $end
    $var wire 32 b! if_instr_data [31:0] $end
    $var wire 1 h! if_update_en $end
    $var wire 32 i! if_update_pc [31:0] $end
    $var wire 1 j! if_branch_taken $end
    $var wire 32 $ if_curr_pc [31:0] $end
    $var wire 32 k! if_curr_pc4 [31:0] $end
    $var wire 32 $ if_int_current_pc_fetch [31:0] $end
    $var wire 32 G! if_int_current_pc4_fetch [31:0] $end
    $var wire 1 H! if_int_predicted_taken $end
    $var wire 1 c! if_instr_req_valid $end
    $scope module IF_Branch_predictor $end
     $var wire 1 ^! clk $end
     $var wire 1 _! reset $end
     $var wire 32 $ current_pc_in [31:0] $end
     $var wire 1 h! update_en_in $end
     $var wire 32 i! update_pc_in [31:0] $end
     $var wire 1 j! branch_taken_in $end
     $var wire 1 H! predicted_taken $end
     $var wire 3 r! update_index [2:0] $end
     $var wire 3 I! pc_index [2:0] $end
     $var wire 2 J! BHT[7] [1:0] $end
     $var wire 2 K! BHT[6] [1:0] $end
     $var wire 2 L! BHT[5] [1:0] $end
     $var wire 2 M! BHT[4] [1:0] $end
     $var wire 2 N! BHT[3] [1:0] $end
     $var wire 2 O! BHT[2] [1:0] $end
     $var wire 2 P! BHT[1] [1:0] $end
     $var wire 2 Q! BHT[0] [1:0] $end
     $var wire 32 R! i [31:0] $end
    $upscope $end
    $scope module IF_Instr_Mem $end
     $var wire 32 q! MEM_WIDTH [31:0] $end
     $var wire 1 `! mem_en $end
     $var wire 1 c! instr_req_valid $end
     $var wire 32 $ instr_req_addr_in [31:0] $end
     $var wire 1 a! instr_valid_out $end
     $var wire 32 b! instr_data_out [31:0] $end
    $upscope $end
    $scope module IF_PC_Fetch $end
     $var wire 1 ^! clk $end
     $var wire 1 _! reset $end
     $var wire 1 % stall_in $end
     $var wire 1 " redirect_valid_in $end
     $var wire 32 # redirect_dest_in [31:0] $end
     $var wire 1 H! branch_predicted_in $end
     $var wire 32 g! branch_dest_in [31:0] $end
     $var wire 32 $ current_pc_out [31:0] $end
     $var wire 32 G! current_pc4_out [31:0] $end
     $var wire 32 S! next_pc [31:0] $end
     $var wire 32 $ current_pc [31:0] $end
    $upscope $end
   $upscope $end
   $scope module Core_IF_ID_Reg $end
    $var wire 1 ^! clk $end
    $var wire 1 _! reset $end
    $var wire 1 " ifid_flush_in $end
    $var wire 1 % stall_in $end
    $var wire 1 a! if_id_instr_valid_in $end
    $var wire 32 b! if_id_instr_data_in [31:0] $end
    $var wire 32 $ instr_pc_in [31:0] $end
    $var wire 32 k! instr_pc4_in [31:0] $end
    $var wire 1 & if_id_instr_valid_out $end
    $var wire 32 ' if_id_instr_data_out [31:0] $end
    $var wire 32 ( instr_pc_out [31:0] $end
    $var wire 32 ) instr_pc4_out [31:0] $end
   $upscope $end
   $scope module Core_MEM $end
    $var wire 32 s! MEM_DEPTH [31:0] $end
    $var wire 32 t! DATA_ADDR [31:0] $end
    $var wire 1 ^! clk $end
    $var wire 1 _! reset $end
    $var wire 77 B exmem_signals_in [76:0] $end
    $var wire 73 E mem_signals_out [72:0] $end
    $var wire 32 H mem_fw_data_out [31:0] $end
    $var wire 32 u! mem_int_addr [31:0] $end
    $var wire 1 T! mem_int_en $end
    $var wire 1 U! mem_int_rw $end
    $var wire 3 V! mem_int_store_size [2:0] $end
    $var wire 3 W! mem_int_load_size [2:0] $end
    $var wire 32 H mem_int_memory_data [31:0] $end
    $var wire 1 X! mem_int_data_valid $end
    $scope module mem_int_control $end
     $var wire 2 Y! lsu_op_in [1:0] $end
     $var wire 1 T! mem_en_out $end
     $var wire 1 U! mem_rw_out $end
     $var wire 3 V! mem_store_size_out [2:0] $end
     $var wire 3 W! mem_load_size_out [2:0] $end
    $upscope $end
    $scope module mem_int_memory $end
     $var wire 32 s! MEM_DEPTH [31:0] $end
     $var wire 32 t! DATA_ADDR [31:0] $end
     $var wire 1 ^! clk $end
     $var wire 1 _! reset $end
     $var wire 32 Z! addr_req_in [31:0] $end
     $var wire 32 [! store_data_in [31:0] $end
     $var wire 1 T! mem_en_in $end
     $var wire 1 U! mem_rw_in $end
     $var wire 3 W! mem_load_size_in [2:0] $end
     $var wire 3 V! mem_store_size_in [2:0] $end
     $var wire 32 H mem_data_out [31:0] $end
     $var wire 1 X! mem_data_valid $end
     $var wire 32 \! i [31:0] $end
    $upscope $end
   $upscope $end
   $scope module Core_MEM_WB_Reg $end
    $var wire 1 ^! clk $end
    $var wire 1 _! reset $end
    $var wire 73 E mem_wb_signals_in [72:0] $end
    $var wire 32 H mem_fw_data_in [31:0] $end
    $var wire 73 I wb_signals_out [72:0] $end
    $var wire 32 l! mem_fw_data_out [31:0] $end
   $upscope $end
   $scope module Core_Stall_Control $end
    $var wire 5 e ex_rd_addr [4:0] $end
    $var wire 1 i ex_is_load $end
    $var wire 5 c id_rs1_addr [4:0] $end
    $var wire 5 d id_rs2_addr [4:0] $end
    $var wire 1 u id_use_rs1 $end
    $var wire 1 v id_use_rs2 $end
    $var wire 1 % ifid_stall_out $end
    $var wire 1 % idex_stall_out $end
    $var wire 1 ]! addr_match $end
   $upscope $end
   $scope module Core_WB $end
    $var wire 73 I wb_ctrl_signals_in [72:0] $end
    $var wire 5 + rd_addr_out [4:0] $end
    $var wire 32 * rd_data_out [31:0] $end
    $var wire 1 , rd_write_out $end
   $upscope $end
  $upscope $end
 $upscope $end
 $scope module cpu_pkg $end
  $var wire 7 v! OPCODE_R [6:0] $end
  $var wire 7 w! OPCODE_I_ALU [6:0] $end
  $var wire 7 x! OPCODE_LOAD [6:0] $end
  $var wire 7 y! OPCODE_SW [6:0] $end
  $var wire 7 z! OPCODE_BRANCH [6:0] $end
  $var wire 7 {! OPCODE_JAL [6:0] $end
  $var wire 7 |! OPCODE_JALR [6:0] $end
  $var wire 7 }! OPCODE_LUI [6:0] $end
 $upscope $end
$enddefinitions $end


#0
0"
b00000000000000000000000000000000 #
b00000000000000000000000000000000 $
0%
0&
b00000000000000000000000000000000 '
b00000000000000000000000000000000 (
b00000000000000000000000000000000 )
b00000000000000000000000000000000 *
b00000 +
0,
b011111100100011010000000000000000000000000000000000000000000000000000000000000000000000000000000000000000000100000000000000000000000000000000000000000000000000000000000000000000000000000000000000000000000000 -
b000000000000000000000000000000000000000000000000000000000000000000000000000000000000000000000000000000000000000000000000000000000000000000000000000000000000000000000000000000000000000000000000000000000000000 4
b00000000000000000000000000000000 ;
b10 <
b10 =
b00000000000000000000000000000000000000000000000000000000000000000000000000000 >
b00000000000000000000000000000000 A
b00000000000000000000000000000000000000000000000000000000000000000000000000000 B
b0000000000000000000000000000000000000000000000000000000000000000000000001 E
b00000000000000000000000000000000 H
b0000000000000000000000000000000000000000000000000000000000000000000000000 I
b00000000000000000000000000000000 L
b00000000000000000000000000000000 M
b00000000000000000000000000000000 N
b00000000000000000000000000000000 O
b00000000000000000000000000000000 P
b00000000000000000000000000000000 Q
b00000000000000000000000000000000 R
1S
b00000000000000000000000000000000 T
b000 U
b000 V
b00000000000000000000000000000000 W
b00000000000000000000000000000000 X
b00 Y
b00 Z
b00 [
b00 \
b00000000000000000000000000000000 ]
b00000000000000000000000000000000 ^
b00 _
b000 `
b000 a
b00000000000000000000000000000000 b
b00000 c
b00000 d
b00000 e
0f
b00000 g
0h
0i
0j
b111 k
b11 l
b10 m
0n
b100 o
b01 p
b10 q
b10 r
b000 s
b000 t
0u
0v
b00000 w
0x
0y
b00000000000000000000000000000000 z
b00000000000000000000000000000000 {
0|
b0000000 }
b10 ~
0!!
b101 "!
b00000000000000000000000000000000 #!
b0000000 $!
b000 %!
b00000000000000000000000000000000 &!
b00000000000000000000000000000000 '!
b00000000000000000000000000000000 (!
b00000000000000000000000000000000 )!
b00000000000000000000000000000000 *!
b00000000000000000000000000000000 +!
b00000000000000000000000000000000 ,!
b00000000000000000000000000000000 -!
b00000000000000000000000000000000 .!
b00000000000000000000000000000000 /!
b00000000000000000000000000000000 0!
b00000000000000000000000000000000 1!
b00000000000000000000000000000000 2!
b00000000000000000000000000000000 3!
b00000000000000000000000000000000 4!
b00000000000000000000000000000000 5!
b00000000000000000000000000000000 6!
b00000000000000000000000000000000 7!
b00000000000000000000000000000000 8!
b00000000000000000000000000000000 9!
b00000000000000000000000000000000 :!
b00000000000000000000000000000000 ;!
b00000000000000000000000000000000 <!
b00000000000000000000000000000000 =!
b00000000000000000000000000000000 >!
b00000000000000000000000000000000 ?!
b00000000000000000000000000000000 @!
b00000000000000000000000000000000 A!
b00000000000000000000000000000000 B!
b00000000000000000000000000000000 C!
b00000000000000000000000000000000 D!
b00000000000000000000000000000000 E!
b00000000000000000000000000000000 F!
b00000000000000000000000000000100 G!
0H!
b000 I!
b00 J!
b00 K!
b00 L!
b00 M!
b00 N!
b00 O!
b00 P!
b00 Q!
b00000000000000000000000000000000 R!
b00000000000000000000000000000100 S!
1T!
0U!
b000 V!
b100 W!
1X!
b00 Y!
b00000000000000000000000000000000 Z!
b00000000000000000000000000000000 [!
b00000000000000000000000000000000 \!
0]!
0^!
1_!
1`!
0a!
b00000000000000000000000000000000 b!
0c!
0d!
b00000000000000000000000000000000 e!
0f!
b00000000000000000000000000000000 g!
0h!
b00000000000000000000000000000000 i!
0j!
b00000000000000000000000000000000 k!
b00000000000000000000000000000000 l!
b00000000000000000000000000000000 m!
0n!
b00000000000000000000000000000101 o!
b00000000000000000000000000100000 p!
b00000000000000000000010000000000 q!
b000 r!
b00000000000000000001000000000000 s!
b00000000000000000000000000000000 t!
b00000000000000000000000000000000 u!
b0110011 v!
b0010011 w!
b0000011 x!
b0100011 y!
b1100011 z!
b1101111 {!
b1100111 |!
b0110111 }!
#5000
1,
b111111100100011010000000000000000000000000000000000000000000000000000000000000000000000000000000000000000000100000000000000000000000000000000000000000000000000000000000000000000000000000000000000000000000000 4
b00000001001000000000000000000000000000000000000000000000000000000000000000000 >
b00000001001000000000000000000000000000000000000000000000000000000000000000000 B
b0000001000000000000000000000000000000000000000000000000000000000000000000 E
b0000011000000000000000000000000000000000000000000000000000000000000000000 I
0S
b111 U
b100 V
b11 Y
b10 Z
b01 [
b10 \
b10 _
b00000000000000000000000000100000 F!
b01 J!
b01 K!
b01 L!
b01 M!
b01 N!
b01 O!
b01 P!
b01 Q!
b00000000000000000000000000001000 R!
0T!
b000 W!
0X!
b10 Y!
b00000000000000000001000000000000 \!
1^!
#10000
0^!
#15000
1^!
#20000
0^!
0_!
1a!
b00000001010000000000000100010011 b!
1c!
#25000
b00000000000000000000000000000100 $
1&
b00000001010000000000000100010011 '
0,
b100000010100011000000000000001101000000101100000000000000000000000000000000000000000000000000000000000000000100000000000000000000000000001010000000000000000000000000000000000000000000000000000000000000000000 -
b011111100100011010000000000000000000000000000000000000000000000000000000000000000000000000000000000000000000100000000000000000000000000000000000000000000000000000000000000000000000000000000000000000000000000 4
b0000001000000000000000000000000000000000000000000000000000000000000000000 I
b10100 d
1j
b000 k
b00 l
b01 m
b00 r
1u
b00010 w
1x
1y
b0010011 }
b001 "!
b00000000000000000000000000010100 #!
b00000000000000000000000000001000 G!
b001 I!
b00000000000000000000000000001000 S!
1]!
1^!
b00000000111100010000000110010011 b!
#30000
0^!
#35000
b00000000000000000000000000001000 $
b00000000111100010000000110010011 '
b00000000000000000000000000000100 (
b100000010100011000000000000101011110000111100000000000000000000000000000010000000000000000000000000000000000100000000000000000000000000000111100000000000000000000000000000000000000000000000000000000000000000 -
b100000010100011000000000000001101000000101100000000000000000000000000000000000000000000000000000000000000000100000000000000000000000000001010000000000000000000000000000000000000000000000000000000000000000000 4
b00 <
b00010110001000000000000000000000000000010100000000000000000000000000000000000 >
b00000000000000000000000000010100 A
b00000000000000000000000000010100 O
b00000000000000000000000000010100 R
b000 U
b00 Y
b01 Z
b00000000000000000000000000010100 ]
b00010 c
b01111 d
b00010 e
1f
b00011 w
b00000000000000000000000000001111 #!
b00000000000000000000000000001100 G!
b010 I!
b00000000000000000000000000001100 S!
1^!
b00000000000000000000000000010011 b!
#40000
0^!
#45000
b00000000000000000000000000001100 $
b00000000000000000000000000010011 '
b00000000000000000000000000001000 (
b100000010100011000000000000001000000000000100000000000000000000000000000100000000000000000000000000000000000100000000000000000000000000000000000000000000000000000000000000000000000000000000000000000000000000 -
b100000010100011000000000000101011110000111100000000000000000000000000000010000000000000000000000000000000000100000000000000000000000000000111100000000000000000000000000000000000000000000000000000000000000000 4
b00000000000000000000000000010100 ;
b10 <
b00011110001000000000000000000000000000001111000000000000000000000000000000000 >
b00000000000000000000000000001111 A
b00010110001000000000000000000000000000010100000000000000000000000000000000000 B
b0001010000000000000000000000000000010100000000000000000000000000000000000 E
b00000000000000000000000000001111 O
b00000000000000000000000000001111 R
b00000000000000000000000000001111 ]
b00000000000000000000000000000100 ^
b00000 c
b00000 d
b00011 e
b00010 g
1h
b00000 w
0x
b00000000000000000000000000000000 #!
b00000000000000000000000000010000 G!
b011 I!
b00000000000000000000000000010000 S!
b00000000000000000000000000010100 Z!
0]!
1^!
b00000000000000000000000000000000 b!
#50000
0^!
#55000
b00000000000000000000000000010000 $
b00000000000000000000000000000000 '
b00000000000000000000000000001100 (
b00000000000000000000000000010100 *
b00010 +
1,
b011111100100011010000000000001000000000000000000000000000000000000000000110000000000000000000000000000000000100000000000000000000000000000000000000000000000000000000000000000000000000000000000000000000000000 -
b100000010100011000000000000001000000000000100000000000000000000000000000100000000000000000000000000000000000100000000000000000000000000000000000000000000000000000000000000000000000000000000000000000000000000 4
b00000000000000000000000000001111 ;
b00000010001000000000000000000000000000000000000000000000000000000000000000000 >
b00000000000000000000000000000000 A
b00011110001000000000000000000000000000001111000000000000000000000000000000000 B
b0001110000000000000000000000000000001111000000000000000000000000000000000 E
b0001010000000000000000000000000000010100000000000000000000000000000000000 I
b00000000000000000000000000000000 O
b00000000000000000000000000000000 R
b00000000000000000000000000000000 ]
b00000000000000000000000000001000 ^
b00000 e
b00011 g
0j
b111 k
b11 l
b10 m
b10 r
0y
b0000000 }
b110 "!
b00000000000000000000000000010100 G!
b100 I!
b00000000000000000000000000010100 S!
b00000000000000000000000000001111 Z!
1]!
1^!
#60000
0^!
#65000
b00000000000000000000000000010100 $
b00000000000000000000000000010000 (
b00000000000000000000000000001111 *
b00011 +
b011111100100011010000000000001000000000000000000000000000000000000000001000000000000000000000000000000000000100000000000000000000000000000000000000000000000000000000000000000000000000000000000000000000000000 -
b011111100100011010000000000001000000000000000000000000000000000000000000110000000000000000000000000000000000100000000000000000000000000000000000000000000000000000000000000000000000000000000000000000000000000 4
b00000000000000000000000000000000 ;
b00000001001000000000000000000000000000000000000000000000000000000000000000000 >
b00000010001000000000000000000000000000000000000000000000000000000000000000000 B
b0000010000000000000000000000000000000000000000000000000000000000000000000 E
b0001110000000000000000000000000000001111000000000000000000000000000000000 I
b111 U
b11 Y
b10 Z
b00000000000000000000000000001100 ^
0f
b00000 g
b00000000000000000000000000010100 (!
b00000000000000000000000000011000 G!
b101 I!
b00000000000000000000000000011000 S!
b00000000000000000000000000000000 Z!
1^!
#70000
0^!
#75000
b00000000000000000000000000011000 $
b00000000000000000000000000010100 (
b00000000000000000000000000000000 *
b00000 +
b011111100100011010000000000001000000000000000000000000000000000000000001010000000000000000000000000000000000100000000000000000000000000000000000000000000000000000000000000000000000000000000000000000000000000 -
b011111100100011010000000000001000000000000000000000000000000000000000001000000000000000000000000000000000000100000000000000000000000000000000000000000000000000000000000000000000000000000000000000000000000000 4
b00000001001000000000000000000000000000000000000000000000000000000000000000000 B
b0000001000000000000000000000000000000000000000000000000000000000000000000 E
b0000010000000000000000000000000000000000000000000000000000000000000000000 I
b00000000000000000000000000010000 ^
0h
b00000000000000000000000000001111 )!
b00000000000000000000000000011100 G!
b110 I!
b00000000000000000000000000011100 S!
1^!
#80000
0^!
#85000
b00000000000000000000000000011100 $
b00000000000000000000000000011000 (
0,
b011111100100011010000000000001000000000000000000000000000000000000000001100000000000000000000000000000000000100000000000000000000000000000000000000000000000000000000000000000000000000000000000000000000000000 -
b011111100100011010000000000001000000000000000000000000000000000000000001010000000000000000000000000000000000100000000000000000000000000000000000000000000000000000000000000000000000000000000000000000000000000 4
b0000001000000000000000000000000000000000000000000000000000000000000000000 I
b00000000000000000000000000010100 ^
b00000000000000000000000000100000 G!
b111 I!
b00000000000000000000000000100000 S!
1^!
#90000
0^!
